…
## # A tibble: 15,837 x 3
##    enddate    approve disapprove
##    <date>       <dbl>      <dbl>
##  1 2017-01-22    45         45  
##  2 2017-01-22    46         37  
##  3 2017-01-24    42.1       45.2
##  4 2017-01-23    45         46  
##  5 2017-01-25    42.3       45.8
##  6 2017-01-25    36         44  
##  7 2017-01-24    46         45  
##  8 2017-01-24    57         43  
##  9 2017-01-25    46         45  
## 10 2017-01-24    44         44  
## # ... with 15,827 more rows

## # A tibble: 15,837 x 4
##    enddate    approve disapprove netapprovalrate
##    <date>       <dbl>      <dbl>           <dbl>
##  1 2017-01-22    45         45               0  
##  2 2017-01-22    46         37               9  
##  3 2017-01-24    42.1       45.2            -3.1
##  4 2017-01-23    45         46              -1  
##  5 2017-01-25    42.3       45.8            -3.5
##  6 2017-01-25    36         44              -8  
##  7 2017-01-24    46         45               1  
##  8 2017-01-24    57         43              14  
##  9 2017-01-25    46         45               1  
## 10 2017-01-24    44         44               0  
## # ... with 15,827 more rows

## # A tibble: 196 x 10
##     year  week   mean sd_rate count t_critical se_rate margin_of_error rate_low
##    <dbl> <dbl>  <dbl>   <dbl> <int>      <dbl>   <dbl>           <dbl>    <dbl>
##  1  2017     3  4.5      5.20     4       3.18   2.60            8.27     -3.77
##  2  2017     4  0.647    6.82    49       2.01   0.974           1.96     -1.31
##  3  2017     5 -1.99     5.22    73       1.99   0.611           1.22     -3.21
##  4  2017     6 -4.55     6.39    79       1.99   0.719           1.43     -5.98
##  5  2017     7 -6.14     6.74    87       1.99   0.723           1.44     -7.58
##  6  2017     8 -5.27     5.68    80       1.99   0.635           1.26     -6.54
##  7  2017     9 -3.63     4.53    83       1.99   0.497           0.989    -4.61
##  8  2017    10 -5.02     5.58    88       1.99   0.595           1.18     -6.20
##  9  2017    11 -7.05     5.65    81       1.99   0.627           1.25     -8.30
## 10  2017    12 -8.44     6.81    82       1.99   0.752           1.50     -9.94
## # ... with 186 more rows, and 1 more variable: rate_high <dbl>
…
